{
  "name": "drupal-theme-oscargrant",
  "description": "Custom Drupal theme for OscarGrantCommittee.org.",
  "css": {
    "file" : "oscargrant.style.scss",
    "src": [
      "assets/scss/**/*.scss"
    ],
    "dest": "assets/css"
  },
  "js": {
    "file" : "oscargrant.script.js",
    "src": [
      "assets/js/**/*.js"
    ]
  },
  "images": {
    "src": [
      "assets/images/**/*"
    ],
    "dest": "assets/images/"
  }
}
