<?xml version="1.0" encoding="UTF-8" standalone="no"?>
<svg
   xmlns:dc="http://purl.org/dc/elements/1.1/"
   xmlns:cc="http://creativecommons.org/ns#"
   xmlns:rdf="http://www.w3.org/1999/02/22-rdf-syntax-ns#"
   xmlns:svg="http://www.w3.org/2000/svg"
   xmlns="http://www.w3.org/2000/svg"
   xmlns:sodipodi="http://sodipodi.sourceforge.net/DTD/sodipodi-0.dtd"
   xmlns:inkscape="http://www.inkscape.org/namespaces/inkscape"
   width="220"
   height="250"
   id="svg2"
   version="1.1"
   inkscape:version="0.91 r13725"
   sodipodi:docname="logo.svg">
  <metadata
     id="metadata18">
    <rdf:RDF>
      <cc:Work
         rdf:about="">
        <dc:format>image/svg+xml</dc:format>
        <dc:type
           rdf:resource="http://purl.org/dc/dcmitype/StillImage" />
      </cc:Work>
    </rdf:RDF>
  </metadata>
  <defs
     id="defs16" />
  <sodipodi:namedview
     pagecolor="#ffffff"
     bordercolor="#666666"
     borderopacity="1"
     objecttolerance="10"
     gridtolerance="10"
     guidetolerance="10"
     inkscape:pageopacity="0"
     inkscape:pageshadow="2"
     inkscape:window-width="1325"
     inkscape:window-height="712"
     id="namedview14"
     showgrid="false"
     inkscape:zoom="0.944"
     inkscape:cx="76.199599"
     inkscape:cy="279.26931"
     inkscape:window-x="41"
     inkscape:window-y="24"
     inkscape:window-maximized="1"
     inkscape:current-layer="svg2" />
  <g
     id="g4">
    <path
       fill="#fff"
       d="M133.04 113.9c-4.54-.08-3.18 8.75 1.04 5.46 2.67-1.54 2.64-5.56-1.04-5.46zm-11.48 1.26c-3 .4-8.3 4.93-4.36 7.43 2.86-.2 6.77 1.3 8.97-.97 3.4 2.96 6.17-4.3 1.56-4.1-2.1 1.63-2.65.18-3.97-1.65-.58-.57-1.4-.9-2.2-.74zm-45.65 3.88c-3.2.5-1.46 4.74-.07 4.82-2.1 2.36-2.48-4.5-5.62-3.08-3.35.1-5.76 4.68-2 6.3 2.2 1.13 5.73 1.63 7.24.43 2.38 1.9 3.3-1.83 5.52-.5 2.56-.82 8 .3 7.17-3.97-2.1-3.57-9.37-3.93-9.9.77-1.23-.1 2.34-4.32-1.4-4.76l-.46-.1-.45.1zm48.4 50.05c-5.9.7-11.95 2.92-17.93 4.22-2.76 1.7-6.48-.56-9.64.3-2.9-.28-8.57-3.05-8.88 1.66 1 4.4 6.15 5.02 9.1 7.32 3.3.12 6.12 1.85 9.34.66 4.16-.42 7.4-2.78 11.3-4 1.7-1.73 3.54-1.95 5.47-3.03.8-1.9 1.66-2.57 3.44-3.5 1.2-1.65-.14-3.93-2.2-3.66z"
       id="path6" />
    <path
       fill="#939393"
       d="M13.8 247.12c67.68.12 135.37.45 203.04-.14-.36-26.5-1.23-53-2.06-79.5-6.97-6.03-14.87-9.36-22.77-14.32-5.8-3.8-14.73-4.92-16.45 1.92-6.78.52-16.54-3.88-5.75-8.2 10.4-7.47 10.62-20.76 11.68-32.27.73-15.37-2.55-30.6-5-45.62-3.97-9.5-5.68-20.16-12.87-28.12-7.4-7.95-15.1-16.3-24.72-21.5-9.78-6.46-21.6-8.2-33.1-7.46-13.67-1.03-28 2.12-38.25 11.73C57.43 28.6 54.68 40.3 49 49.1c-5.54 18.06-7.34 37.12-8.4 55.95 2 8.62-4.03 20.78 5.83 25.45 9.85.95 10.04 8.82 9.72 16.8.3 9 4.8 16.73 7.4 25.08 6.17 7.5 6.67 19.84-1.63 25.96-4.3 7.9-14.56 10-18.7 18.33-5.25 8.9-17.42 11.27-22 21.23-2.9 2.83-6.83 4.7-7.42 9.22zM133.25 115.9c2.9 1.26-3.95 3.7 0 0zm-11.22 1.22c9.05 6.66-13.02 3.88 0 0zm5.9 2.4c1.67 1.05-1.9.9 0 0zM76.35 121c1.46.95-1.46.94 0 0zm4.67 1.5c7-.56 4.8 3.47-.86 2.2.04-.83.5-1.5.86-2.2zm-10.3.24c9.97 6.8-8.93 2.1 0 0zm6.35 2.76c.86.73-1.04.64 0 0zm47.4 45.6c1.86.9-1.93 1.04 0 0zm-2.52.27c-.16 6.12-10.7 8.3-16.65 10-4.74 3.2-22.94-8.72-10.07-5.98 9.33 2.3 17.72-2 26.73-4.03z"
       id="path8"
       style="fill:#d7a546;fill-opacity:1" />
    <path
       fill="#5f5f5f"
       d="M100.06 12.23c-12.2-.63-24.05 4.1-33.1 12.15-9 4.43-11.32 14.95-16.56 22.67-4.67 10.98-5.84 23.14-7.57 34.88-1.13 10.7-2.27 21.46-1.76 32.22-2.83 10.8 4.72 17.28 14.27 20.2 1.7 9.36 0 20.47 5.74 28.88-.38 8.2 8.94 14.3 7.48 22.36-.7 10.27-9.28 17.17-17 22.68-7.87 6.9-12.54 16.23-22.38 20.92-4.6 6.44-12.75 10.9-15.26 17.7 67.6.2 135.17.04 202.76.04-.12-7.1-.38-21.95-.44-24.55-2.3 6.9 5.16 23.46-3.38 24.24-66.3 0-132.6 0-198.9 0 6.9-8.33 14.32-17.66 24-23.5 6.8-7.28 13.6-15.5 21.97-21.17 7-6.18 13.46-18.26 5.73-26.5-3.2-6.86-4.9-13.5-7.64-20.36-3.58-8.42 2.86-22.32-9.35-24.46-7.52-.9-7.18-8.16-6.38-11.97-1.86-6.08-.97-19.7.06-28.43 1.3-14.05 3.06-28.28 7.58-41.67 5.57-9.14 8.92-20.6 19.3-25.56 10.3-9.37 24.6-11.33 38-10.46 11.2-.86 22.7 1.44 32.06 7.86 9.22 4.9 16.5 13.23 23.76 20.7 7.17 7.9 8.8 18.53 12.8 27.97 1.25 7.6 2.57 16.22 3.98 24.78 1.83 14.23 1.3 28.94-2.46 42.77-1.42 7.6-22.98 15.75-6.85 18.32 8.44 5.03 5.8-7.74 14.08-4.17 8.9 2.27 15.66 9.35 24 12.15 3.9 3.54 9.84 8.1 2.48 1.6-7.05-2.83-12.42-7.84-19.57-11.4-5.1-2.33-14.54-6.12-15.2 2.5-6.36.17-18.8-3.9-6.87-8.92 9.9-6.76 10.46-19 11.56-29.76 1.18-14.3-1.84-28.32-3.8-42.36-1.93-8.34-5.13-18.47-9.26-26.92-6.2-10.58-16.13-18.08-25.18-26.02-9.4-5.14-19.57-10.37-30.68-9.38-3.98 0-8.17-.1-12.02-.03zm73.3 53.9c-1.22.56 1.36.8 0 0zm-71.33 3.17c-4.72 1.42-7.56 2.03-11.53 3.2.46 5.7-9.98-2.76-10.1 4.18-6.05-1.76-7.62 6.44-11.72 10.1-5.04.36-2.07 8.1-5.1 9.78-6.05 6.86 3.93 7.56 10.45 7.04 6.55 1.12 5.06 4.68 9.8 3.56 4.67 5.5 1.86 4.83.83 5.78-2.7 1.52-11.7-3.34-17.16-3.16-5.52 1.1-6.3-.34-4.97 3.06-3.02 8.26 12.7.7 7.53 7.87 5.74-2 5.07 2.76 9.42-.27 5.4-3.13 10.8 5.85 5.16 4.07 7.7-2.27-10.34-3.76-3.26.9 1.93.9-10.24 4.32-9.8-2.98-11.66.8 9.03 7-2.3 5.62-4.4-.52-8.68 2.3-11.8 4.5 1.8 3.9.78 8.53 1.07 12.98 1.83 4.32.64 11.05 4.83 14.2-.2 4.45 2.2 10.6 6.55 14.1-.2-6.3 6.1 8.52 4.07.1-1.92-2.36-.42-9.24 3.65-7.92 3.33-4.04 7.44-.5 12.55-5 1.82 2.18 8.83-3.5 7.68 2.18-2.66 4.82 3.28-1.57 5.63.06-2.83-5.1 9.97.07.86 2.03-6.35 2.33-15.13-.63-19.23 4.73 6.4 2.63 11.9 4.68 19.1 3.3 8.12-.7 15.6-4 23.12-6.03-1.24-3.63-2.5-3.63-5.37-3.47 1.14 5.16-3.34-7.5 2.35-1.5 1.95-.57 6.77 2.23 6.92-1.24 1.44.7 4.9 5.78 6.66 9.7-1.8 2.17 3.17 11.1-1.66 7.57-1.6-2.16-9.26-.66-2.15-3.25-4.67 0-3.6-8.52-8.6-3.9-5.75-1.76-14.7 3.48-21.65 4.1-4.7-.17-21.2-3.7-10.54 3.56 3.43 3.93 21.25 2.68 7.4 3.8-8.6.17-12.54-7.6-19.35-10.2.22 2.86 4.76 11.8 6.1 9.23-1 7.73 10.06 12.9 15.3 13.06 9.48-.38 18.98-5.68 24-14.1 4.76-2.1-4.38 8.9-5.1 8.15-4.97 4.57-12.42 10.47-19.8 8.16-4.36-1.67-15.23-5.12-14.1-8.2-2.58-.94-1.67-5.56-5.14-7.92-.73 1.36-5.65 3.08-1.04 7.5 2.8 3.78 4.1 8.8 6.23 13.2 3.18 4.55 5 6.03 9.45 5.17 4.4 2.5 4.2-6.72 5.93-.7-2.82 2.85 1.34 9.82 2.4 1.76.46-2.6.34 13.43 2.03 2.8 5.78-4.6 1.73-5.5-1 .3 1.85-5-2.07-8.14 2.65-9.15 2.15.95-2.38 5.1 2.82 3.66 3.24-5.07-2.95 11.12 1.76 2.87 3.1-5.42 2.3-3.34 4.54-1.68 1.5 2.6 6.07-5.9 7.57-1.46.1-4.4 7.34-3.9 6.7-7.7-.84 1 3.3-3.23 2.3-4.5 2.87-1.83-5.44-3.32.83-4.28 2.28-7.5.6 6.6 5.78-.87 5.3-3.8 2.42-6.6 9.75-10.73.62-6.35 2.44-3.13 3.76-8.8 4.9-2.3.13-7 3.22-8.4.1-6.3.56-10.34.3-15.17.84-4.9-1.17-9.05.58-13.72-1.35-3.36 1.02-9.73-3.23-13.98-3.52-4.08-2.22-10.9-5.14-11.48-1.63-7.32-2.68 5.64-8.3-.6-1.62-3.08-10.8-7.03-11.88-4.2 8.46 4.66-9.5 3.06-11.02 3.66-2.4 3.75-7.8 3.6-9.7 3.25 2.06 3.55-4.38-2.2-2.54 2.78-4.68-4.95 5.27-13 5.9-8.36 5.44-3.94 11.93-4.87 17.97-6.6 4.54.85 16.62 2.33 9.4-1.1 2.87-6.83-8.65-8.67-10.46-13.2-2.07-1.5-6.7-4.34-11.64-3.56-2.52-6.03-8.65-3.56-10.8-6.68-1.12.82-3.47.7-5.7-1.56zm.06.58c2.9 2.9 7.5 3.67 11.3 3.8 1.37 3.8 9.37 5.02 10.6 5.27 3.36 1.8 7.9 5.42 12.42 8.13 5.76 3.45.05 5.95 5.77 9.32-5.1-1-13.76-1.83-16.76.02-5.33 1.52-11.18 3.7-17.04 4.95-7 .5-4.68 13.16-2.27 8.02 3.35 4.1 4.3-3.9 5.7-.72 6.35-.9 7.9-4.44 15.94-4.9 4.7 1.53 6.8.47 5.73-2.37 2.66 1.84 9.06.16 9.1 5.03-5.24-.97-2.82 2.15.8 3.9.92-3.75 6.48-7.3 7.35-3.65 1.26 3.17 4.8 9.55 6.67 14.57 2.55 4.77-1.2 9.1.8 10.55-.5 4.92-.55 9.2 0 14.6-2.12 3.32 1.65 5-1.5 9.48 1 2.67 0 8.24-.53 11.1-4.5 3.12-4.28 10.37-9.17 13.2-2.88 1.46-8.3 11.73-8.08 8.35-4.24-3.93 3.07-6.82-.26-8.75 1.45-3.5-.74-8-1.13-11.33-1.3-3.8-6.14-10.34-10.47-6.1-1.93-1-6.98-2.57-6.8-.55-2.86-5.66-9.4.36-7.9-.44-2.74-1.12-10.8-1.5-10.6 2.33-2.9-1.05-3.23-2.4-6.03-4.9 1.53 4.36-5.44-.33-7.76 3.65-2.67 1.17-4.78-2.6-4.45.82-3.02-.7-3.62 2.03-7.65 2.34-5.87.6-.9 13.13-5.23 5.37-3.2 5.2-5.14-6.65-7.13-9.8-1.85-5.93-5.04-13.1-4.28-19.42-.83-5.24-.78-10.16 1.67-11.26 5.65-.95 5.94-3.05 12.23-1.45 4.72-2.02 15.76-3.8 15.52-5.1 3.1 3.8 4.43 4.32.45 8.4 6.12.48 5.86-7.54 2.07-8.37-3.6-5.5-11.15-9.86-2.8-11.18-3.6-7.8-12.6-10-20.26-9.72-9.53 1.02-3.46-3.85-4.1-5.4 2.82-3.1.8-6.05 2.97-9.33 3.32-1.1 5.56-7.74 9.3-9.4 1.06-3.12 6.04-.82 6.36-4.4 4.17.58 3.54.54 7.87.76-.27-3.24 6.26-3.34 10.63-4.27-.38-.76.96-.64.93-1.15zm6.2 1.28c.83.72-1 .32 0 0zm-22.5 3.18c1.2 1.5-1.38 1.52 0 0zm40.7 5.18c1.84.83-.67 1.07 0 0zM42.9 96.68c-1.82.32 1.32 2.07 0 0zm88.5 0c-.92.75 1.7.7 0 0zm-3.4 1.9c-3.3 3.27 3.4 1.3 0 0zm-4.53.14c-1.8 2.04 4.2-.1 0 0zm11.3.36c-2.23 1.3 1.67 1.52 0 0zm2 .43c-2.08 1.6 2.38.96 0 0zm-4.76.6c1.68.8-.94.64 0 0zm-2.7.3c-1.68 1.97 2.2 1.2 0 0zm20 .7c-1.63.93 2.3 1.93 0 0zm-24.4.64c-2.5 1.23 1.84 1.15 0 0zm-14.73.35c-.72.5.72.5 0 0zm26.38.2c.93.32-.36.68 0 0zm-24.17.4c-.65.47.35.56 0 0zm8.98.6c-2.34 2.16 2.6.34 0 0zm18.9.42c-1.9.96 1.73 1.98 0 0zm10.98.2c-1.1 1.05 1.33.3 0 0zm-34.16 1.17c-1.75 1.08 1.3.8 0 0zm-11.3.04c.78.82-1.37 1.5 0 0zm-27.87 0c-1.92 3.2 4.24 2.33 0 0zm.1.5c2 1.58-.3 1.27 0 0zm-4.34.06c-1.8 1.57 2.06 1.3 0 0zm38.3 0c-2.22 1.92 2.1 2 0 0zm-7.5.55c1.04 1.56-.2 7.1-.6.75l.6-.75zm1.63.14c.43 2.62-2.42 1.3 0 0zm-34.1.14c-1.7 1.26 2.2 1.05 0 0zm67.64.06c2.2 1.36-1.43 1.3 0 0zm3.46.34c2.83 5.3-4.35 2.16 0 0zm-74.24.16c-.1 1.4-.2-.17 0 0zm17.5 0c-1.2 2.33 3.43 1.37 0 0zm-4.03.3c-.9.97 1.2.26 0 0zm-5.4.3c-1.12 2.07 2.97 1.2 0 0zm3.76.88c-1.8 2.03 3.04 1.53 0 0zm67.46.2c-2.92 1.4 2.65 1.25 0 0zm-2.62.13c-3.23 1.35 2.06 1.93 0 0zm-64.6.18c.8.42-.54.8 0 0zm7.8.06c-1.64.98 1.43.55 0 0zm-4.8.18c1.17 1.64.2.17 0 0zm47.83.34c-4.74 1.25-15.38.26-15.63 6.03-3.15-.78-7.64 11.24.57 6.5 6.16-.5 8.93.37 13.5-.17 2.9-3.83 12.5-3 16.76-7.05-2.25-3.13-6.87-1.88-9.74-4.88-1.76-.38-3.72-.4-5.45-.44zm.1.5c6.27-.37 10.96 3.94 14.4 4.43-4.26 2.92-15.62 6.82-19.1 4.87-.22 6.82-6.04-9.07-9.86.4-3.24 2.53-7.38 3.5-2.36-1.97 1.96-.77-3.15-1.48 2.23-2.07-2.82-4.87 14.52-5.38 3.5-2.88-8.33 3.65 13.5 1.5 12.6-1.13-.42-1-4.63-1.12-1.4-1.66zm-63.6.04c3.38 1.35 14.27 2.76 12.62 3.88-3.32.2 9.43 7.6-.07 2.76-13.16-1.97 12.04 5.65-.27 3.2-3.56-1.48-14.83 2.2-7.9-3.02-6.67 2.37-14.05-3.24-6.5-6.42l1.76-.33.34-.12v.05zm-6.23.3c1.32.36-1.05.62 0 0zm65.86.43c11.63 1.7-2.37 3.33-6 3.02-2.13-1.48 5.47-1.86 6-3.02zm28.27.58c-1.37.7 1.24.92 0 0zm-17.86.2c-4.17 2.13 3.96 3.9 0 0zm-53.6.48c.9.34-.56.5 0 0zm53.6.13c1.12 1.36-1.63 1.2 0 0zm-17.77 1.2c-.14 1.47-2.5.82 0 0zm27.1.48c-.23.72.42.56 0 0zm-28.88.76c.63.22-.72.14 0 0zm8.35.25c-2.83 1.9 3.14 1.87 0 0zm-6.02 0c-.57.92.9.4 0 0zm6.1.32c2.2 1.8-2.54.43 0 0zm-44.55.02c1.92 1.44-1.6.52 0 0zm50.67.02c-7.45 4.9 5.36 3.25 0 0zm-.14.22c3.46 2.33-4.48 3.8 0 0zm-14.73.43c-1.33 1.34 1.66 1.44 0 0zm3.7.98c9.35 5.7-11.4 5.38-1.97.7l1.96-.7zm-42.8.14c5.6 1 6.14 4.5 0 0zm6.2.8c.95.37-.34.66 0 0zm.67 1.03c2.25 2.5-2.16 1.38 0 0zm-43.94.38c1.45 1.3-1.37.23 0 0zm85.6 0c2.37 1.28-2.2 1.4 0 0zm-40.33.4c5.75 3.45 3.2 11.1.87 2.82 0-.54-1.72-2.05-.87-2.82zm28.5.5c1.3.9-1.94 1 0 0zm-39.72.46c2.6 1.44-2.65 1.86 0 0zm40.65.04c5.4.36-2 2.2 0 0zm-55.57.03c-1.15.42 1.04.96 0 0zm47.9.55c-.65.48.35.57 0 0zm11.5 0c1.82.57-2.1.37 0 0zm44.5.7c-2.93 4.2.36 10.8.73 2.2-.4-.5.17-2.04-.72-2.2zm-83.5.17c12.02-.1-5.27 6.82-.57.1l.57-.12zm-10.76.26c10.1 8.22-9.36 2.2 0 0zm55.55.66c-2.8 1.93 3.03.95 0 0zm-11.14.26c-1.5.57 1.34 1.26 0 0zm13 .16c-.8.78 1.24.5 0 0zm36.98.18c.45 6.23-2.37 4.98 0 0zm-88.06 1.1c-3.93 1.93 2.72 2.8 0 0zm-.24.3c2.08 1.52-2.16 1.3 0 0zm90.38.83c-2.67 5.58-1.56 8.54-3.4 12.44 7.08 5.8 8.32-9.54 3.4-12.45zm-74.42.38c1.73 6.72-3.93 5.73 0 0zm-32.48.1c-3.16 2.2 3.45 1.15 0 0zm106.9.2c5.37 2.94 1.16 17.5-3.03 10.67 3.07-2.22 0-5.6 3.03-10.67zm-87.35.73c-1.56 1.44 1.93 1 0 0zm76.04.38c-2.28 1.46 2.24 1.15 0 0zm-78.66.34c-1.86 1.32 1.72 1.28 0 0zm14.85 4.3c-7 2.8-3.37 8.18-4.96 13.57 4.22-1.54 6.94-9.35 4.96-13.6v.03zm-.14.45c1.27 4.45-1.45 9.44-4.1 12.88.87-3.74-.47-8.28 1.93-10.2-2.5-.76.86-3 2.18-2.67zm15.38 3.87c-1.87 4.06 4.56 8.28 2.5.88-.95-.1-1.7-.3-2.5-.88zm.4 1.04c.73.78-.73.78 0 0zm1.6.28c3.73 3.9-5.78 4.6 0 0zm-50.1.12c-1.05.5 1.05.5 0 0zm53.95 1.07c-.4 3.25 8.7 7.36 2.42.92-.87-.04-1.76-.38-2.42-.9zm1.68 1.27c4.92 2.28-.2 3.25 0 0zm-29.3 2.98c-1.64 1.9 1.2.93 0 0zm32 1.72c-1.15.6 1.1.4 0 0zm-26.53.18c-2.17 1.17-.45 12.23-6.58 6.12-.4-12.83-4.8 8 4.9 4.77 1.85.95-.66-5.97 4.5-.9 6.93 2.08 3.08-1.6-.72-3.48-1.48-2.1-1.6-4.24-2.1-6.5zm27.73.3c-2.78 7.3-10.9 2.2-15.73 6.23-6.94 2.46-2.66 6.7 1.25 1.85 5.1-2.3 16 1.35 14.48-8.08zm-28.43.7c1.57 1.1-.34 1.06 0 0zm28.08 1c-2.6 8.82-12.25 2-17.9 8.07-2.73-.6 7.62-6.83 11.72-4.88 2.7.9 4.33-1.8 6.18-3.2zm-35.2.46c.75 2.45-.76 2.05 0 0zm7.43.95c.77 4.18 11.32 10 1 4.8-2.02.85-8.24 4.06-8.22-2.77 2.57 6.14 7.83 1.88 7.22-2.03zm2.08 8.2c-1.36 1.3 1.67.47 0 0zm3.28 2.4c1.67.76-.95.7 0 0zm19.95.45c1.37.74-1.2.63 0 0zm2 .35c3.9 3.95.38 4.85-.93 1.98-2.57 7.2-7-5.1-.3-.72.45-.33.48-1.3 1.22-1.25zm11.17.43c-.7 1 .86.43 0 0zm-12.86.18c1.13.6-1.38.36 0 0zm-6.86.04c6.43 6.58-3.24 2.12 0 0zm-10.05.56c-1.55 1.22 1.72.95 0 0zm-6.5.1c-1.17.88 1.58 1.4 0 0zm-9 .33c2.03.66-1.27.77 0 0zm33.6.62c1.3 3.1 3.6 2.53 5.66 3.43 6.13.82-7.34 4.72-10.65 5.6-7.26.88-14.96 3.9-21.53 0-9.33-.65-1.58-4 2.8-4.74 5.4 2.77 14.2-3.48 15.8-1.7 4.64-3.56 4.94 3.97 7.92-2.56v-.02zm-8.66.2c1.6 1.77-1.52.37 0 0zm-2.6.35c-2.66.16 2.1 1.72 0 0zm-10.54.06c-2.46 1.2 1.4 1.15 0 0zm-7.52.57c-1.06.78.9.36 0 0zm34.33.06c2.22 1.4-1.23 1.4 0 0zm-37.2 1.63c-1.85.6 1.84 1.12 0 0zm-15.9.3c-.75.54 1.2.7 0 0zm12.9.17c-1.96.98 1.8 1.47 0 0zm45.46.05c-2.42 1.27 2.4.72 0 0zm-60.46.25c-1.22 1.36 1.66.4 0 0zm67.1.3c-.72.5.72.5 0 0zm-6.06 4c4.5 3.16-9.28 5.4-1.97 5.75 4.54-4.96 2.2 4.4-1.12 5.6-6.48 11.25-23.68 16.87-34.17 7.85-4.15-4.26-1.94-8.56-7.04-11.2 4.3 2.42-2.03-9.04-.56-.6-4.5-9.92 5.38 1.33 8.64 3 6.17 3.48 15.56 3.72 21.62-.46 4.36-.45 9.2-2.8 10.8-6.85 1.33-.5 2.56-3 3.8-3.08zm-3.88.5c2.65 1.94-3.6 1.58 0 0zm-2.84.35c1.97 6.15-9.72 7.85-14.7 10.27-4.9 2.85-20.87-4.5-15-6.82 10.2 2.58 19.9-.67 29.7-3.43v-.03zm-43.75.04c-1.46.88 1.28 1.38 0 0zm53.62.4c-2.13 1.5 2.5 2.68 0 0zm-8.5.36c4.1.58-2.4 4.05 0 0zm5.27.8c1.86 1.78-3.17.76 0 0zm5.03.2c-1.83 1 1.8 1.2 0 0zm-54.24.63c-1.98.7 1.27 1.1 0 0zm-5.46.94c1.86.34-.26 3.64 0 0zm56.52.05c1 .48-.8.86 0 0zm1.8.12c4.32.44-3.64 1.38 0 0zm-7.36.2c3.44 1.8-.84 1.6 0 0zm-54.16 0c-2.74 1.3 3.53 2.05 0 0zm51.83.24c-2.15 3.5-8.88 5-13.82 6.73 2.54-1.4 9.88-5.14 13.83-6.72zm-45.74.97c-1.72.62 1.72.7 0 0zm52.83.2c.42.72-2.6 2.82 0 0zm-45.45.12c1.52.68.08 2.02 0 0zm-11.56.37c-2.68 1.5 2.53 1.68 0 0zm60.37.12c5.35 1.7-1.62 8.9 3.85 6.15-4.3 2.6-6.33 7.96-2.7 12.15-3.15 2.08-.7 3.83-4.8 5.3-4.28 2.7-4.05 3.06-7.25 3.62-.73 1.93-4.62-2.15-7.57 1.77.98-3.9-6.16-.6-2.87-4.53-6.8-.87-4.9 5-7.75 9.16-2.8-3.13 4-7.24-1.2-9.47-1.52.7-3.33 5.65-5.43 4.7 2.43-5.47-4.76 4.3-6.57-1.83-1.45-2.28-5.65-7.7-5.16-9.52 2.52 1.58-2.05-4.57-1.3-4.5-1.1 2.3-6.18-9.32-.24-6.72 2.73 5.23 1.05 8.08 6.96 9.3 5.1 3.52 13.76 8.14 19.4 4.1 6.32-1.68 11.8-6.16 15.68-10.37 1.44-6.73 6.53-3.42 6.97-9.3zm-57.67.74c-6.75 2 3 5.54 4.76 2.12-1.52-1-3.64-.5-4.77-2.12zm54.14.25c1.46.46-.5 2.73 0 0zm1.85.4c.47.6-2.2 1 0 0zm-56.05.2c10.9 2.78-6.47 2.05-.48.46l.46-.47zm61.5.47c.15 1.13-1.35.55 0 0zm-5.06.18c1.17 2.82-3.95.73 0 0zm-49.3.52c-1.97.5 1.34 1.36 0 0zm54.85.2c-.64 5.47-5.94 3.77 0 0zm2.3 1.2c.16 4.26-7.27 3.35 0 0zm-56.48.4c.72.5-.72.5 0 0zm6.3.3c-2.82 2.2 2.45 1.17 0 0zm-10.8.3c-3.24 1.7 3.02 2.68 0 0zm-2.8.2c-1.1 1.04 1.1 1.04 0 0zm18.55.27c-2.17 1.27 1.4 1.6 0 0zm27.96.03c-1.46.95 1.46.94 0 0zm34.22.1c-1.36.4 1.13.8 0 0zm-1.44 1c-1 2.78-.88 3.72-5.18 6.3-3.04 5.5-6.97 9.6-11.4 13.8-3.04 3.12-7.1 11.4-10.72 11.7-2.16 4.45-5.8 3.58-8.18 5.6-1.35.05-.93 7.8-4.5 2.9 4.05 7.9-8.57-2.1-14-1.5-2.84-.45-3.7 6.47-4.9.32-2.5-5.72-5.47-4.07-8.5-11 .54 8.17 7.46 14.87 14.42 18.64 7.67 4.55 16.92 10.78 24.57 13.2 6.6-6.68 13.47-13 20.15-19.53 6.63-5.4 12.55-10.94 17.8-17.53 8.3-5.5-2.82-8.27-4.25-8.44 1.23-2.6.78-12.64-3.18-10.82 1.45 2.78-2.5 1.67-2.14-3.63zm-78.5.2c-2.3 1.56 2.68 1.57 0 0zm-1.57.1c-.83.4.97.37 0 0zm82.82.35c-1.96 1.32 2.05.77 0 0zm-18.8.15c-2.6 1 1.92 1.3 0 0zm-4.64.67c2.78 3.98-2.52 3.2.4 1.58-.3-.14-1.1-1.35-.4-1.58zm1.5.13c1.06.44-1.35 1.16 0 0zm-58.27.05c-2.35 1.56 1.8 1.36 0 0zm3.4.23c.9.4-.58.92 0 0zm9.66.56c-.83.9 1.17.52 0 0zm53.8.8c-1.2.98 1.17.88 0 0zm10.76.08c.76.68-.92 1.08 0 0zm-18.73.08c.4.58-.72.46 0 0zm22.4 0c2.5.9-2.13.62 0 0zm-5.5.38c3.35.7 9.2 4.4 6.06 5.9-2.3 8.65 5.22 3.8 7.93 9.03-5.8 7.68-12.2 13.78-19.25 20.2-7.9 6.6-14.88 14.25-22.48 21.28-7.07-6.08-21.1-9.8-25.1-16.06.6-2.47-5.93 1.02-1.2-1.94.1-8.3 12.6 3.44 17.78 1.5 1.92-5.5 3.6-5.55 8.26-8.5 3.36-2.8 6.4-4.97 10.06-10.34 2.93-4.84 8-8 11.22-12.8 1.83-5.45 5.98-3.1 6.6-8.18l.14-.1zm-31 .68c.53 1.42-.8.42 0 0zm20.3 0c-1.87 1 1.24 1.34 0 0zm11.4.76c-3.8 3.55 3.47 2.66 0 0zm17.8.2c-3.98 5.63.33 13.24 4.37 3.24-1.23-1.4-2.76-2.4-4.36-3.24zm-20.9.24c.45 1.04-1.57.63 0 0zm20.94.14c8.72 2.24-3.73 12-.35 3.63.14-.97-.74-3 .34-3.64zm-91.48.03c-.56 1.62 1 .23 0 0zm71.38.03c.87.7-1.07.62 0 0zm2.24.14c1 1.7-1.37 1.22 0 0zm-19.74 1.4c2.05.76-1.53 1.3 0 0zm-52.2.47c-1.4 2.17 2.94 1.7 0 0zm50.92.13c.97.4-.7.62 0 0zm24.38.06c-1.08.7.9.68 0 0zM130.98 193c-2 2.5 4.13 1.53 0 0zm9.98.2c-2.97 1.62 2.35 1.86 0 0zm19.5 3.17c1.12 1.23-1.06 1.02 0 0zm-.83.84c1.05.62-.4.67 0 0zm-32.85 1.17c-2.76 1.3 2.03 1.6 0 0zm-21.3 2.43c-4.25 2.87 3 1.35 0 0zm-.2.58c1.05.5-1.05.5 0 0zm-2.33.2c1.47 1.63-1.42 2.03 0 0zm11.18.04c-3.9 2.56 3 1.15 0 0zm-.16.56c.72.5-.72.5 0 0zm-10.33 1.27c.4.66-.25.62 0 0zm38.43.63c-2.12 1.65 1.74.73 0 0zm-21.9.32c.87 2.34-2.17 1.73 0 0zm-24.92.25c-2.07.8 1.37 1.1 0 0zm14.24.13c.85.73-1.05.64 0 0zm18.2.23c-1.66 1.2 2.34 1.44 0 0zm-10.74.6c.65.47-.35.56 0 0zm-3.63.42c.75 3.46-2.85 3.88 0 0zm9.27.2c-4.44 3.35 3.36 1.5 0 0zm.27.58c.77.62-1.04.38 0 0zm4.6 0c-1.86.53 1.52 1.03 0 0zm-34.4.2c.42.58-.7.46 0 0zm5.87.15c-4.77 4.95 2.2 2.65 0 0zm-.06.53c.7.32-.65.97 0 0zm1.77.15c-2.24 1.2 2.03 2.12 0 0zm-4.5.18c-2.1.27 2.26 1.3 0 0zm13 0c.72.52-.72.52 0 0zm13.87.3c-2.5 2.12 2.9.37 0 0zm-5.73.4c-3.17 1 .33 2.66 0 0zm-24.75.4c-4.5 1.13 2.03 2.64 0 0zm33.3.1c-1.06 1.1.97.87 0 0zm-6.3.27c-2.18.35 1.67 1.95 0 0zm-9.25.17c-2.3 1.27 2.6 1.58 0 0zm-18 .06c.84.72-1 .32 0 0zm20.2.15c1.4.53-1.9 1.43 0 0zm-16.24.52c-2.52 1.97 3.27 1.25 0 0zm5.25.56c-4.46 2.62 2.06 1.92 0 0zm5.28.93c1.3.65-.8.8 0 0zm10.6.38c-.72.5.72.5 0 0zm-3.58.1c-1.18 1.4 1.72 1.03 0 0zm-25.5 1c2.15 5.03 11.17 16.87 2.35 6.27-.9-1.57-2.73-4.7-2.35-6.26zm6.76.54c-1.7 1.2 1.6.9 0 0zm5.6.1c-2.58 1.2 1.66 1.5 0 0zm4.2.9c-2.56 1.97 2.76 1.22 0 0zm-1.97 3.36c-3.23 2 4.07.84 0 0zm.43.63c.63.22-.72.14 0 0zm-19.8.17c-.47.83.77.4 0 0zm25.43.8c-2.22 1.33 1.67 1.53 0 0zm-25.13.5c-.7.33.65.93 0 0zm11.3.56c1.7 1.6-1 .92 0 0zm-1.53.35c4.2 2.04-.74 1.16 0 0zm30.4.13c-4.43.74 3.75 1.7 0 0zm-1.56 1.37c-5.63 1.95 4.3 2.06 0 0zm0 .3c2.37 1.63-3.72.73 0 0zm-39.03.8c-1.08 3.32.87 1.1 0 0zm17.35.4c-2.85 1.83 3 1.64 0 0zm-4.8 1.23c2.25 1.2-1.13.95 0 0zm-10.76.03c-4.66 2.22 1.6 2.84 0 0zm31.06.36c1.32.36-1.05.62 0 0zm-7.2.6c-1.77 2.23 2.54.96 0 0zm-21.1 1c-1.45.62 1.9.67 0 0zm-3.7 1.1c-1.57-.52 3.12 15.03 2.02 5-.6-1.55.74-5.3-2.02-5zm29.44.3c-2.6 1 1.92 1.3 0 0zm-29.83 3.2c-2.22.3-.5 2.52 0 0zm-.8 2.2c-1.33 5.98-.5 8.65.73.94.53-.44-.5-.92-.73-.94zm2.68 4.7c-1.46 2.33.34 3.14 0 0zm11.3 1.13c-4.4 4.66 6.57 7.5 2 3-2.36.3.27-1.87-2-3zm42.42 2.57c-1.86.53 1.52 1.03 0 0zm8.42.78c-3.85 1.45.94 3.56 0 0zm-58.2.24c-1.4.84 1.77 1.9 0 0z"
       id="path10"
       style="fill:#000000;opacity:0.5" />
    <path
       fill="#0a0a0a"
       d="M213.36 0c0 55.68 0 111.37 0 167.05-7.2-5.66-15.18-9.14-23.02-14.36-5.67-2.16-12.98-4.12-14.22 3.27-6.88.23-18.5-4.65-6.68-9.54 10.67-7.55 10.4-21.44 11.42-33.1.7-12.94-2.28-25.57-3.85-38.33-1.65-7.37-4.8-17.17-8.3-25.23-5.88-11.62-16.7-19.5-26.2-27.93-10.08-5.78-21.3-10.6-33.25-9.25-14-.83-29.17.5-40 10.44-10.72 5.27-14.3 17.28-19.84 26.94-5.1 17.23-7.05 35.35-8.04 53.27-1.44 9.52 2.66 14.43-.07 21.5 5.78 7.7 19.62 7.6 15.35 21-.48 8.23 4.1 15.05 5.83 22.46 5 8.8 10.23 19.3 2.47 28.4-6.8 9.18-18.8 13.36-23.68 24.45-11.28 4.7-16.76 16.48-26.64 22.44-4.87 0-9.75 0-14.63 0-1 5.17.46 7.87 6 6.5 71.33 0 142.66 0 214 0 0-83.33 0-166.67 0-250-2.2 0-4.43 0-6.64 0zm-40 66.13c1.36.84-1.23.57 0 0zm-71.33 3.17c3.55 4.05 6.13.05 8.43 3.9 5.9-.55 9.27 7.9 16.82 5.4 1.74 5.04 9.86 6.02 13.42 12.26-.95 4.48 6.43 7.1-2.9 5.42-6.32-1.63-12.1 0-17.27 2.64-7.5 3.72-7.2-.13-13.7 4.7.2 6.54-.87 6.1 2.63 4.7 1.6 1.83-.25-3.97 4.23.36 4.7-4.1 8-4.55 15.64-4.9 8.53 1.5-1.2-2.62 2.67-4.88 5.64 1.87 9.62 6 14.74 7.12 3.67.1 1.5-6.43 4.5.35 2.02.25 2.56 9.98 6.78 13.6 1 6.04.72 9.65.4 14.6-.3 3.97 1.16 8.6-.2 12.9.65 3 1.02 12.5-1.18 13.78 2.26 3.53-3.14 9.9-4.05 11.23-.7 2.56-4.52 8.85-8.74 10.8 4.5 1.35-9.48 10.34-6.2 4.72-.32-4.9-5.88 3.63-3.83 2.53 2.95 1.66-.37 6.16-2.1 7.1 2.62 3.1-6.3 3.4-6.08 7.66-1.5-4.44-6.06 4.03-7.56 1.45-2.3-1.66-1.4-3.76-4.56 1.66-5.25 7.9 2.86-8.3-2.82-3-4.4 1.36 1.72-6-3.64-2.52-.75.7-1.84 13.06 1.8 4.48 4.98-4.23-4.84 9.84-2.7 5.72-1.58-4.75.4-8.34-2.54-1.1-2.98-.06-.2-12.85-2.85-5.52-3.05-.93-9.03 3.3-9.88-1.7-3.92-3-7.2-8.4-7.18-13.76-3.42-.15-6.6-9.57-2.13-8.5-.4-3.96 6.56 4.03 3.32 4.87 2.52 2.94 7.6 7.82 14.4 8.6 7.68 5.1 14.66-1.93 21.3-5.6.73-2.43 9.12-7.52 6.53-10.38-5.34 8.57-14.76 14.57-24.72 14.87-5.25-.16-16.3-5.33-15.3-13.07-1.13 3.06-7.22-7.54-5.56-9.17 6.72 3.82 11.98 11.18 21.36 10.32 7.77-1.5-11.54-.47-13.48-6.9 3.47-4.3 17.3 2.2 24-3 6.14-1.15 13.6-4.42 16.37-.94 2.2 3.63 5.24 2.42.36 5.38 4.66-2.9 9.1 6.72 7.98-2.58-1.72-4.57-1.7-8.63-6.1-13.4-.77 1.5-3.74.8-6.22 1.4-4.63-3.77-6.1 1-3.7 2-1.14-3.76 3.33.93 3.93-.58 1.78 6.5-12.93 6-18.4 8.53-7.87 1.4-14.7 1.28-21.5-2.37-2.12-4.3 12.07-4.08 16.53-4.63 8.13-.53 2.5-8.02-.07-3.42.82 1.53-6.44 2.36-5.93 2.22 3.7-7.3-4.4-1.6-6.6-3.88-4.26 5.2-9.76.7-12.02 5.2-4.5-1.45-5.66 4.18-5.2 7.56 4.5 6.72-3.15-.57-2.6-1.38-3.82 3.04-6.77-8.67-7.58-11.53-2.48-3.5-2.74-9.74-4.7-14.3.44-4.68.24-9.14-.47-13.45 1.95-2.72 7.63-5.72 12.7-4.7 8.42.28-10.55-5.1.96-5.75-.13 7.78 15.35 4 8.15 1.72 4.18-5.85 6.65 1.07 6.16 1.3 5.05-5.94-8.4-6.12-10.2-3.5.67-4.27-9.6 1.16-4.5-4.6-7.72 2.27-8.66-2.8-9.23-6.08 1.65-3 13.4.02 18.8 1.3 5.53 3.54 2.17-2.76 6.58-.15-2.85-7.64-6.75-3.16-9.13-7.87-5.28-2-18.3.93-16.14-5.3 4.56-4.48 1.8-6.83 4.8-12.43 5.27.26 6.75-12.27 12.62-9.97 1.33-4.35 8.8-2.35 10.74-2.8 2.5-3.8 6.98-2.9 11.4-4.46l.45-.35-.07.08zM85.8 74.34c-1.32 1.43 1.15 1.57 0 0zm40.7 5.18c-.66 1.08 1.85.8 0 0zM42.9 96.68c1.28 2.13-1.8.23 0 0zm88.5 0c1.66.76-.94.7 0 0zm-3.4 1.9c3.56 1.34-3.4 3.17 0 0zm-4.53.14c5.03-.12-2.4 2.05 0 0zm11.3.36c1.46 1.2-1.8 1.3 0 0zm2 .43c2.36 1.02-2.05 1.53 0 0zm-7.5.9c2.23 1.26-1.68 1.94 0 0zm20.02.7c2.36 1.87-1.68 1.07 0 0zm-24.4.64c1.5 1.26-2.05.84 0 0zm-14.75.35c.72.5-.72.5 0 0zm26.38.2c-.36.68.93.32 0 0zm-24.17.4c.42.57-.7.45 0 0zm8.98.6c1.8.7-1.46 1.4 0 0zm29.88.62c1.3.44-1.05.92 0 0zm-34.16 1.17c1.3.82-1.77 1.06-.02 0h.02zm-11.3.04c-1.46 1.47.86.88 0 0zm-27.87 0c4.12 2.77-1.8 3.02 0 0zm-4.26.56c2.37 1.58-2 1.5 0 0zm38.3 0c2.16 1.54-2.14 2.38 0 0zm-7.5.55c-1.72 7.37 1.88 3.65 0 0zm-32.45.3c2.25 1-1.76 1.3 0 0zm67.62.05c-1.7 1.12 2.5 1.88 0 0zm3.46.34c-4.34 2.18 2.84 5.28 0 0zm-74.24.16c1.45 1.3-1.37.23 0 0zm13.47.3c1.17.26-.84 1 0 0zm-5.4.3c3.64 1.74-1.5 1.85 0 0zm3.77.88c3.1 1.6-1.86 1.94 0 0zm3.25.75c3.5 1.2-2.63 1.4 0 0zm47.92.85c-2.3-.1 5.94 4.82-2.1 3.5-5.6.9-17.9 2.3-5.8-1.8-.2-3-8.12 4-8.85 4.1-.9 2.03 1.64.88-2.57 4.72.05 5.53 6.12-5.82 10.6-3.3 1.83 7.07 4.56 1.43 5.52 2.7 3 .3 20.07-4.4 16.3-5.82-5-.4-6.13-5.47-13.1-4.1zm24.3 1.33c1.24.94-1.4.68 0 0zm-17.86.2c4 3.93-4.22 2.08 0 0zm-11.2 3.28c3.53 2.1-3.1 1.7 0 0zm-6.02 0c.88.43-.56.93 0 0zm-38.45.35c-1.22.62 1.42 1.5 0 0zm50.68.02c5.13 3.1-6.63 5.1 0 0zm-14.87.65c1.72 1.32-1.37 1.43 0 0zm-39.1 1.1c3.17 3.43 7.43 1.64 0 0zm6.2.8c-.3.72.94.3 0 0zm2 1.8c.18 6.37 7.2 9.67 1.33 1.2l-1.35-1.2h.03zm29.4 1.02c-2.43 2.53 5.62.4 0 0zm-55.55.03c1.08 1.08-1.22.3 0 0zm59.4.55c-2.02.37 1.75.57 0 0zm44.5.7c2.78 5.1-3.37 10.47-.56 1.27-.2-.16.05-1.3.55-1.27zm-87.96 2.8c2.7 2.85-3.96 1.86 0 0zm90.13 1.13c8.48 4.28-2.94 21.33-3.08 9.4 3.35.85-.96-7.33 3.08-9.4zM93 126.3c-3.8 5.25 1.5 7.12 0 0zm-32.47.1c2.92 1.3-2.58 2.1 0 0zm31.64 6.4c-3.44 2.4-2.92 4.02-4.05 7.88.33 5.04.13 5.18 2.7.46.85-2.3 2.74-6.4 1.35-8.33zm15.78 4.9c-.73.8.73.8 0 0zm1.6.3c-5.6 4.4 3.64 4.05 0 0zm5.52 2.44c.18 3.97 4.58 1.4 0 0zm-24.54 5.88c-.46 1.07 1.7.98 0 0zm28.08 1c-4.15 6.63-13.4-.2-17.5 7.1-3.6 3.84 9.4-6.3 12.37-1.6 2.25-.58 5.68-2.8 5.14-5.5zm-35.2.46c-.72 2.46.73 2.05 0 0zm7.44.94c1.25 5.27-6.47 5.7-7.32 2.9 3.28 8.72 7.97-2.8 12.98 4.48.53-2.04-5.87-3.83-5.66-7.38zm5.36 10.6c-.92.73 1.64.74 0 0zm19.95.45c-1.2.57 1.4.8 0 0zm2 .35c-2.43 2.08-6.84-.7-4.12 3.74 2.7 1.82 3.6-4.67 5.33.74 2.08-1.63-.28-3.08-1.2-4.48zm-8.55.64c-2.7 2.67 5.32 4.94 0 0zm-16.56.67c1.64 1.4-1.14.82 0 0zm-9 .3c-1.2.8 1.97.6 0 0zm22.37 1.18c2.18 1.7-2.68.2 0 0zm-10.53.07c1.63.93-2.6 1.43 0 0zm-7.52.57c.88.4-1.03.76 0 0zm-2.86 1.7c1.8 1.2-1.94.54 0 0zm-3 .48c1.8 1.23-2 1.23 0 0zm45.43.05c2.1.75-2.03 1.18 0 0zm6.64.55c.72.5-.72.5 0 0zm-56.53 4.9c1.4 1.27-1.55 1 0 0zm53.62.4c2.35 2.03-1.82 2.12 0 0zm-8.5.35c-2.38 4.07 4.06.58 0 0zm5.28.8c-3.78 1.3 2.3 1.4 0 0zm5.03.2c1.6 1.04-1.52 1 0 0zm-54.24.63c1.06 1.18-1.66.5 0 0zm51.06 1c-.8.74.94.65 0 0zm-5.57.32c-.68 1.63 2.9 1.42 0 0zm-54.16 0c3.74 2.27-2.92 1.5 0 0zm51.83.24c-3.44 1.4-20.76 9.47-9.4 5.27 2.6-1.44 8.96-2.52 9.4-5.27zm-45.74.96c1.9.8-1.94.54 0 0zm52.84.2c-2.6 2.85.42.7 0 0zm-45.45.12c.1 2.1 1.5.62 0 0zm-11.56.38c2.43 1.65-2.55 1.47 0 0zm2.7.87c9.3 2.93.7 4.3-2.35 2.65-1.43-4 1.4.02 2.34-2.66zm54.13.24c-.7 2.32 1.63 1 0 0zm2.25 1.26c-3.98.74 1.2 2.8 0 0zm-49.3.52c1.3 1.4-1.97.47 0 0zm54.84.2c-4.24 1.75-2.9 7.52 0 0zm2.3 1.2c-6.22 2.42-.63 5.12 0 0zm-61 1c3.15 2.3-3.2 2.1 0 0zm-2.78.2c1.1 1.04-1.1 1.04 0 0zm80.72.4c2.26 1.04-2.46.37 0 0zm-1.44 1c.5 4.5 1.77 6.67 3.4 2.85 3.12 1.83 1.68 11.24 2.85 11.9 3.6.07 10.18 4.87 2.22 9.4-5.88 7.5-13.5 13.44-20.86 19.9-5.75 5.24-11.25 13.57-18.44 15.78-9.7-6.7-21.4-10.65-29.93-18.8-4.84-1.9-9.5-20.26-3.67-8.28 2.53 2.62 5.1 3.32 6.64 9.2 2.33-6.7 12.4.16 18.97 1.75-3.27-4.73.4.28 3.13-4.07-2.65-3.53 4.45-2.6 6-5.37 4.06-1.48 7.1-7.35 11.12-10.6 1.3-5.53 8.06-7.33 9.93-12.58 2.6-5.38 8.18-6.45 8.14-9.88-2.33 1.02.48-1.07.5-1.2zm-78.5.2c2.75 1.46-2.33 1.6 0 0zm-1.57.1c1.05.4-.88.37 0 0zm82.83.35c2.13 1.08-1.84 1 0 0zm-23.44.82c-.1 2.75-.14 4.73.58.8l-.58-.82zm-56.77.17c1.9 2.8-2.54.68 0 0zm3.38.23c-.6.95.9.37 0 0zm63.46 1.37c1.2.7-1.13 1.1 0 0zm-1.75 1.2c1.16 1.35-1.63.84 0 0zm29.22.98c9.94 2.1-4.44 13.52-.78 4.47.07-1.3-1-3.93.77-4.47zm-91.45.4c1.12.58-.62 1.1 0 0zm71.38.04c-1.08.68.9.67 0 0zm2.24.13c-1.37 1.22 1 1.7 0 0zM82 191.6c2.72 1.58-1.1 2.34 0 0zm50.9.13c-.7.67 1.03.32 0 0zm8 1.44c2.44 1.76-3 1.7 0 0zm18.7 4c-.35.68.96.58 0 0zm-54.37 4.16c-1.05.5 1.05.5 0 0zm-2.32.2c-1.46 1.62 1.44 2.03 0 0zm11.03.6c-.72.5.72.5 0 0zm6.2 2.22c-2.14 2.24.97 1.88 0 0zm7.52.6c2.47 1.52-1.68 1.15 0 0zm-5.1 1.2c3.4 1.56-4.4 3.27 0 0zm4.9.58c1.53 1.07-1.98.46 0 0zm-28.54.35c2.64 2.8-5 4.55 0 0zm1.7.68c1.97 1.56-1.98 1.77 0 0zm-4.47.18c2.15 1.24-2.06.3 0 0zm26.86.3c2.38.8-1.94 1.67 0 0zm-5.74.4c.5 2.53-3.25 1.13 0 0zm-24.74.4c1.62 2.62-3.8.6 0 .03v-.03zm33.3.1c.96.86-1.06 1.08 0 0zm-6.3.26c1.64 2.04-2.18.26 0 0zm-9.25.17c3.2 1.87-2.75 1.03 0 0zm-14.04.72c3.36 1.12-2.56 2.08 0 0zm5.25.55c1.43 2.28-3.53 1.84 0 0zm15.86 1.3c.72.5-.72.5 0 0zm-3.57.1c1.54 1.04-1.03 1.34 0 0zm-18.74 1.54c1.62 1-1.5 1.05 0 0zm5.6.1c1.58 1.6-2.52 1.1 0 0zm4.2.9c2.4 1.3-2.14 1.87 0 0zm-1.97 3.35c4.83 1.28-3.64 1.74 0 0zm-19.36.8c.82.36-.5.82 0 0zm25.43.8c1.46 1.2-1.8 1.3 0 0zm-25.13.48c.63.93-.7.38 0 0zm9.77.92c2.63 2.75-.66-.24 0 0zm28.83 1.8c-4.4 1.23 2.62 1.33 0 0zm-39.02.8c.84.88-1.22 3.6 0 0zm1.78 1.65c1.56 2.87-4.67 2.17 0 0zm2.77 1.95c1.34.92-1.07.47 0 0zm-3.7 1.1c4.34 1.54.73 15.3.83 3.8 1.66-2.28-4.62-3.46-.83-3.8zm-.38 3.5c-.5 2.52-2.22.3 0 0zm-.8 2.2c1.96 3.25-2.42 10.37-.3 1.4-1 1.55.32-1.96.3-1.4zm2.68 4.7c.38 2.66-1.45 2.78 0 0zm11.3 1.13c2.73 2.58 2 6.5-.62.54-2.44-1.16 1-.38.63-.54zm42.42 2.58c1.57 1.03-1.9.52 0 0zm8.42.78c1.4.5-2.2.2 0 0z"
       id="path12" />
  </g>
</svg>
